inputconditioner.vcd
$date
	Fri Oct 21 00:21:35 2016
$end
$version
	Icarus Verilog
$end
$timescale
	1s
$end
$scope module testConditioner $end
$var wire 1 ! conditioned $end
$var wire 1 " falling $end
$var wire 1 # rising $end
$var reg 1 $ clk $end
$var reg 1 % dutPassed $end
$var reg 70 & expected [0:69] $end
$var reg 1 ' expectedWire $end
$var reg 70 ( expected_negativeedge [0:69] $end
$var reg 70 ) expected_positiveedge [0:69] $end
$var integer 32 * i [31:0] $end
$var reg 70 + noisy [0:69] $end
$var reg 1 , pin $end
$scope module dut $end
$var wire 1 - clk $end
$var wire 1 . noisysignal $end
$var reg 1 / conditioned $end
$var reg 3 0 counter [2:0] $end
$var reg 1 1 negativeedge $end
$var reg 1 2 positiveedge $end
$var reg 1 3 synchronizer0 $end
$var reg 1 4 synchronizer1 $end
$upscope $end
$upscope $end
$enddefinitions $end
#0
$dumpvars
04
03
x2
x1
b0 0
x/
0.
0-
0,
b111111111111111111110000000000000000001011111111111111111111 +
b0 *
bx000000000000001100000000000000000000000000000000000011000000000 )
bx0000000000000000000000000000000011000000000000000000000000000 (
x'
bx000000000000001111111111111111111100000000000000000011111111111 &
1%
0$
x#
x"
x!
$end
#10
b1 0
b1 *
1$
1-
#20
b10 *
0$
0-
#30
b10 0
b11 *
1$
1-
#40
b100 *
0$
0-
#50
b11 0
b101 *
1$
1-
#60
b110 *
0$
0-
#70
02
0#
0/
0!
b0 0
0'
b111 *
1$
1-
#80
b1000 *
0$
0-
#90
01
0"
b1001 *
1$
1-
#100
1,
1.
b1010 *
0$
0-
#110
13
b1011 *
1$
1-
#120
b1100 *
0$
0-
#130
14
b1101 *
1$
1-
#140
b1110 *
0$
0-
#150
b1 0
b1111 *
1$
1-
#160
b10000 *
0$
0-
#170
b10 0
b10001 *
1$
1-
#180
b10010 *
0$
0-
#190
b11 0
b10011 *
1$
1-
#200
b10100 *
0$
0-
#210
12
1#
1/
1!
b0 0
1'
b10101 *
1$
1-
#220
b10110 *
0$
0-
#230
02
0#
b10111 *
1$
1-
#240
b11000 *
0$
0-
#250
b11001 *
1$
1-
#260
b11010 *
0$
0-
#270
b11011 *
1$
1-
#280
b11100 *
0$
0-
#290
b11101 *
1$
1-
#300
0,
0.
b11110 *
0$
0-
#310
03
b11111 *
1$
1-
#320
b100000 *
0$
0-
#330
04
b100001 *
1$
1-
#340
b100010 *
0$
0-
#350
b1 0
b100011 *
1$
1-
#360
b100100 *
0$
0-
#370
b10 0
b100101 *
1$
1-
#380
b100110 *
0$
0-
#390
b11 0
b100111 *
1$
1-
#400
b101000 *
0$
0-
#410
11
1"
0/
0!
b0 0
0'
b101001 *
1$
1-
#420
b101010 *
0$
0-
#430
01
0"
b101011 *
1$
1-
#440
b101100 *
0$
0-
#450
b101101 *
1$
1-
#460
b101110 *
0$
0-
#470
b101111 *
1$
1-
#480
1,
1.
b110000 *
0$
0-
#490
13
0,
0.
b110001 *
1$
1-
#500
1,
1.
b110010 *
0$
0-
#510
14
b110011 *
1$
1-
#520
b110100 *
0$
0-
#530
b1 0
b110101 *
1$
1-
#540
b110110 *
0$
0-
#550
b10 0
b110111 *
1$
1-
#560
b111000 *
0$
0-
#570
b11 0
b111001 *
1$
1-
#580
b111010 *
0$
0-
#590
12
1#
1/
1!
b0 0
1'
b111011 *
1$
1-
#600
b111100 *
0$
0-
#610
02
0#
b111101 *
1$
1-
#620
b111110 *
0$
0-
#630
b111111 *
1$
1-
#640
b1000000 *
0$
0-
#650
b1000001 *
1$
1-
#660
b1000010 *
0$
0-
#670
b1000011 *
1$
1-
#680
b1000100 *
0$
0-
#690
b1000101 *
1$
1-
#700
b1000110 *
0$
0-
